<svg id="Group_841" data-name="Group 841" xmlns="http://www.w3.org/2000/svg" width="16.359" height="16.359" viewBox="0 0 16.359 16.359">
  <path id="Path_726" data-name="Path 726" d="M1579.069,74.888A5.066,5.066,0,1,1,1577,70.017l2.222-2.222a8.161,8.161,0,1,0,2.734,4.2Z" transform="translate(-1565.884 -65.955)" fill="#ffc22a"/>
</svg>
