<svg xmlns="http://www.w3.org/2000/svg" width="128" height="116.367" viewBox="0 0 128 116.367">
  <g id="Group_565" data-name="Group 565" transform="translate(-70.866 -69.608)">
    <g id="Group_558" data-name="Group 558" transform="translate(70.866 72.99)">
      <g id="Group_556" data-name="Group 556" transform="translate(0)">
        <path id="Path_319" data-name="Path 319" d="M88.917,101.1a8.974,8.974,0,0,1,3.5,4.063V99.969h8.743v28.7H92.414v-5.194a8.966,8.966,0,0,1-3.5,4.063,10.386,10.386,0,0,1-5.657,1.491,11.622,11.622,0,0,1-6.351-1.774,12.133,12.133,0,0,1-4.423-5.117,19.734,19.734,0,0,1,0-15.66,12.165,12.165,0,0,1,4.423-5.091,11.622,11.622,0,0,1,6.351-1.774A10.392,10.392,0,0,1,88.917,101.1Zm-7.38,8.074a8.538,8.538,0,0,0,0,10.286,6.457,6.457,0,0,0,9.1-.052,8.229,8.229,0,0,0,0-10.208,5.986,5.986,0,0,0-4.551-1.877A5.923,5.923,0,0,0,81.537,109.175Z" transform="translate(-70.866 -99.609)"/>
        <path id="Path_320" data-name="Path 320" d="M420.616,103.332q3.034,3.266,3.034,9.077v16.663h-8.743V113.437a5.854,5.854,0,0,0-1.466-4.243,5.286,5.286,0,0,0-3.986-1.517,5.4,5.4,0,0,0-4.14,1.62,6.4,6.4,0,0,0-1.517,4.551v15.223H395V113.437a5.92,5.92,0,0,0-1.44-4.243,5.2,5.2,0,0,0-3.96-1.517,5.529,5.529,0,0,0-4.166,1.594,6.319,6.319,0,0,0-1.543,4.577v15.223H375.1v-28.7H383.9v4.886a8.557,8.557,0,0,1,3.471-3.806,10.531,10.531,0,0,1,5.477-1.389,11.053,11.053,0,0,1,5.811,1.517,9.537,9.537,0,0,1,3.806,4.346,11.5,11.5,0,0,1,4.089-4.269,11.784,11.784,0,0,1,14.066,1.671Z" transform="translate(-340.8 -100.014)"/>
      </g>
      <g id="Group_557" data-name="Group 557" transform="translate(0.89 40.176)">
        <path id="Path_321" data-name="Path 321" d="M107.249,472.239h-19.9q.154,3.24,1.646,4.654a5.3,5.3,0,0,0,3.806,1.414,5.2,5.2,0,0,0,3.24-.977,4.566,4.566,0,0,0,1.7-2.52h9.308a12.173,12.173,0,0,1-2.469,5.426,13.152,13.152,0,0,1-4.834,3.754,16.509,16.509,0,0,1-14.014-.411,12.67,12.67,0,0,1-5.117-5.117,17.591,17.591,0,0,1-.026-15.66A12.508,12.508,0,0,1,85.7,457.71a16.884,16.884,0,0,1,15.017-.026,12.355,12.355,0,0,1,5.014,4.911,14.619,14.619,0,0,1,1.774,7.277A12.148,12.148,0,0,1,107.249,472.239Zm-10.157-7.946a5.586,5.586,0,0,0-3.883-1.414,5.759,5.759,0,0,0-4.011,1.44,6.026,6.026,0,0,0-1.8,4.217H98.609A5.291,5.291,0,0,0,97.092,464.293Z" transform="translate(-78.758 -455.936)"/>
        <path id="Path_322" data-name="Path 322" d="M399.63,459.129v28.7h-8.846v-5.194a9.534,9.534,0,0,1-3.677,4.011,10.683,10.683,0,0,1-5.683,1.491,9.931,9.931,0,0,1-7.843-3.291q-2.906-3.291-2.906-9.051V459.129h8.743v15.583a6.4,6.4,0,0,0,1.517,4.551,5.331,5.331,0,0,0,4.089,1.62,5.415,5.415,0,0,0,4.217-1.7,6.938,6.938,0,0,0,1.543-4.834V459.129Z" transform="translate(-337.763 -458.769)"/>
      </g>
    </g>
    <g id="Group_559" data-name="Group 559" transform="translate(72.194 150.228)">
      <path id="Path_323" data-name="Path 323" d="M111.257,804.029a10.992,10.992,0,1,1-4.482-10.569l4.821-4.821a17.709,17.709,0,1,0,5.932,9.119Z" transform="translate(-82.647 -784.647)" fill="#ffc22a"/>
    </g>
    <g id="Group_560" data-name="Group 560" transform="translate(81.867 152.412)">
      <path id="Path_324" data-name="Path 324" d="M177.389,826.491a2.819,2.819,0,0,1-1.993-.826l-6.134-6.134a2.819,2.819,0,0,1,3.986-3.986l4.141,4.141,14.842-14.842a2.819,2.819,0,0,1,3.986,3.986l-16.835,16.836A2.819,2.819,0,0,1,177.389,826.491Z" transform="translate(-168.436 -804.018)"/>
    </g>
    <g id="Group_561" data-name="Group 561" transform="translate(113.634 150.227)">
      <path id="Path_325" data-name="Path 325" d="M485.834,820.392a3.383,3.383,0,0,1-3.382-3.383V798.147L472.4,811.5a3.383,3.383,0,0,1-5.405,0l-10.047-13.351v18.862a3.382,3.382,0,1,1-6.765,0V788.028a3.383,3.383,0,0,1,6.085-2.034l13.43,17.845,13.43-17.845a3.383,3.383,0,0,1,6.085,2.034v28.982A3.383,3.383,0,0,1,485.834,820.392Z" transform="translate(-450.186 -784.645)" fill="#ffc22a"/>
    </g>
    <g id="Group_562" data-name="Group 562" transform="translate(148.035 69.608)">
      <path id="Path_326" data-name="Path 326" d="M795.744,185.975H776.928a3.383,3.383,0,0,1-3.383-3.382V142.247H758.682A3.383,3.383,0,0,1,755.5,137.7L779.572,71.83a3.382,3.382,0,1,1,6.354,2.321l-22.408,61.33h13.41a3.383,3.383,0,0,1,3.382,3.382V179.21h15.433a3.382,3.382,0,1,1,0,6.765Z" transform="translate(-755.299 -69.608)"/>
    </g>
    <g id="Group_563" data-name="Group 563" transform="translate(175.485 99.57)">
      <circle id="Ellipse_20" data-name="Ellipse 20" cx="4.051" cy="4.051" r="4.051"/>
    </g>
    <g id="Group_564" data-name="Group 564" transform="translate(166.281 149.196)">
      <path id="Path_327" data-name="Path 327" d="M928.159,790.771a46.429,46.429,0,0,1-8.31-.73,3.382,3.382,0,0,1,1.322-6.634h0a40.53,40.53,0,0,0,10.019.473c6.269-.544,10.332-2.709,12.077-6.436a3.382,3.382,0,0,1,6.127,2.868c-2.821,6.026-8.97,9.6-17.783,10.322C930.421,790.731,929.259,790.771,928.159,790.771Z" transform="translate(-917.13 -775.494)"/>
    </g>
  </g>
</svg>
