<svg xmlns="http://www.w3.org/2000/svg" width="11.223" height="11.223" viewBox="0 0 11.223 11.223">
  <path id="Path_710" data-name="Path 710" d="M150.971,678.045h-4.25V673.8H144v4.25h-4.25v2.722H144v4.25h2.722v-4.25h4.25Z" transform="translate(-139.748 -673.795)"/>
</svg>
