<svg xmlns="http://www.w3.org/2000/svg" width="184.757" height="131.492" viewBox="0 0 184.757 131.492">
  <g id="Group_840" data-name="Group 840" transform="translate(1 0)">
    <text id="Sign_In" data-name="Sign In" transform="translate(56 122.029)" font-size="24" font-family="Poppins-SemiBold, Poppins" font-weight="600"><tspan x="-56.04" y="0">Prestator</tspan></text>
    <g id="Group_839" data-name="Group 839" transform="translate(56.359 0)">
      <g id="Group_835" data-name="Group 835" transform="translate(77.68 17.674)">
        <g id="Group_832" data-name="Group 832" transform="translate(17.847 77.845)">
          <path id="Path_722" data-name="Path 722" d="M8121.982,3540.4a45.451,45.451,0,0,1-8.128-.714,3.309,3.309,0,0,1,1.294-6.49,39.551,39.551,0,0,0,9.8.463c6.131-.532,10.105-2.65,11.813-6.3a3.308,3.308,0,1,1,5.992,2.806c-2.759,5.894-8.773,9.385-17.394,10.1C8124.194,3540.36,8123.058,3540.4,8121.982,3540.4Z" transform="translate(-8111.194 -3525.457)"/>
        </g>
        <g id="Group_833" data-name="Group 833" transform="translate(26.849 29.306)">
          <circle id="Ellipse_27" data-name="Ellipse 27" cx="3.962" cy="3.962" r="3.962"/>
        </g>
        <g id="Group_834" data-name="Group 834" transform="translate(0)">
          <path id="Path_723" data-name="Path 723" d="M7988.921,2933.389h-18.4a3.309,3.309,0,0,1-3.309-3.309v-39.461H7952.67a3.31,3.31,0,0,1-3.107-4.444l23.541-64.431a3.308,3.308,0,0,1,6.215,2.27L7957.4,2884h13.115a3.309,3.309,0,0,1,3.309,3.309v39.461h15.095a3.309,3.309,0,0,1,0,6.617Z" transform="translate(-7949.363 -2819.571)"/>
        </g>
      </g>
      <g id="Group_838" data-name="Group 838" transform="translate(0)">
        <g id="Group_836" data-name="Group 836" transform="translate(0 0)">
          <path id="Path_724" data-name="Path 724" d="M7281.275,2727.042h-4.866a7.664,7.664,0,0,1-7.572-6.629,1.016,1.016,0,0,0-.619-.808q-.275-.11-.548-.227a1.014,1.014,0,0,0-1.013.131l-.006,0a7.664,7.664,0,0,1-10.037-.671l-3.441-3.44a7.665,7.665,0,0,1-.667-10.042,1.02,1.02,0,0,0,.132-1.014q-.117-.272-.227-.548a1.015,1.015,0,0,0-.809-.619,7.665,7.665,0,0,1-6.628-7.573v-4.866a7.664,7.664,0,0,1,6.628-7.573,1.015,1.015,0,0,0,.809-.619q.11-.274.227-.547a1.019,1.019,0,0,0-.132-1.014,7.665,7.665,0,0,1,.667-10.042l3.441-3.441a7.664,7.664,0,0,1,10.036-.671l.007,0a1.014,1.014,0,0,0,1.013.131q.272-.116.548-.227a1.015,1.015,0,0,0,.619-.808,7.663,7.663,0,0,1,7.572-6.628h4.866a7.663,7.663,0,0,1,7.572,6.628,1.015,1.015,0,0,0,.619.808q.274.11.547.226a1.017,1.017,0,0,0,1.015-.131,7.665,7.665,0,0,1,10.042.667l3.441,3.441a7.665,7.665,0,0,1,.667,10.042l-.006.008a1.018,1.018,0,0,0-.126,1.006c.078.18.153.364.228.547a1.009,1.009,0,0,0,.808.619,7.664,7.664,0,0,1,6.628,7.573v4.866a7.665,7.665,0,0,1-6.628,7.573,1.009,1.009,0,0,0-.808.619c-.074.184-.149.366-.229.548a1.018,1.018,0,0,0,.126,1l.007.01a7.665,7.665,0,0,1-.667,10.042l-3.441,3.44a7.663,7.663,0,0,1-10.042.667,1.016,1.016,0,0,0-1.014-.131c-.183.078-.364.153-.548.227a1.016,1.016,0,0,0-.619.808A7.663,7.663,0,0,1,7281.275,2727.042Zm-13.993-14.359a7.617,7.617,0,0,1,2.985.609c.138.06.278.117.418.174a7.64,7.64,0,0,1,4.71,6.071,1.026,1.026,0,0,0,1.014.888h4.866a1.027,1.027,0,0,0,1.015-.888,7.637,7.637,0,0,1,4.709-6.071c.14-.056.281-.115.42-.174a7.646,7.646,0,0,1,7.629.961,1.025,1.025,0,0,0,1.344-.089l3.44-3.441a1.027,1.027,0,0,0,.1-1.336l-.007-.009a7.643,7.643,0,0,1-.96-7.629c.059-.14.117-.279.173-.418a7.64,7.64,0,0,1,6.072-4.71,1.027,1.027,0,0,0,.887-1.014v-4.866a1.026,1.026,0,0,0-.887-1.014,7.642,7.642,0,0,1-6.072-4.71c-.056-.14-.114-.279-.173-.417a7.646,7.646,0,0,1,.96-7.631.025.025,0,0,0,0-.007,1.025,1.025,0,0,0-.095-1.338l-3.44-3.441a1.025,1.025,0,0,0-1.344-.09,7.646,7.646,0,0,1-7.63.96q-.207-.088-.419-.173a7.638,7.638,0,0,1-4.709-6.071,1.028,1.028,0,0,0-1.015-.888h-4.866a1.026,1.026,0,0,0-1.014.887,7.641,7.641,0,0,1-4.71,6.072c-.14.056-.28.114-.418.173a7.646,7.646,0,0,1-7.626-.957l0,0h0a1.026,1.026,0,0,0-1.345.09l-3.441,3.441a1.026,1.026,0,0,0-.089,1.344,7.643,7.643,0,0,1,.96,7.629c-.059.139-.117.278-.173.419a7.642,7.642,0,0,1-6.071,4.71,1.026,1.026,0,0,0-.888,1.014v4.866a1.027,1.027,0,0,0,.888,1.014,7.64,7.64,0,0,1,6.071,4.71c.056.14.114.28.173.419a7.643,7.643,0,0,1-.96,7.629,1.028,1.028,0,0,0,.089,1.345l3.441,3.441a1.027,1.027,0,0,0,1.345.09h0l0,0A7.65,7.65,0,0,1,7267.282,2712.683Z" transform="translate(-7244.975 -2659.305)"/>
        </g>
        <g id="Group_837" data-name="Group 837" transform="translate(19.371 19.372)">
          <path id="Path_725" data-name="Path 725" d="M7435.128,2863.957a14.5,14.5,0,1,1,14.5-14.5A14.513,14.513,0,0,1,7435.128,2863.957Zm0-22.377a7.88,7.88,0,1,0,7.88,7.88A7.889,7.889,0,0,0,7435.128,2841.58Z" transform="translate(-7420.63 -2834.963)"/>
        </g>
      </g>
    </g>
  </g>
</svg>
